…
When Jeremy Berg was head of the Institute of General Medical Sciences (NIGMS) from 2003-2011, he routinely provided analysis of funding trends at NIGMS in his “Feedback Loop” blog. One of these measured the productivity per grant dollar by measuring its “scholarly output” (i.e., publications) as a function of direct costs. In this plot there is an increase in productivity per dollar, until an inflection point at $700K, after which the number of publications drops, suggesting a negative influence of grant money on scholarly output. This was interesting and covered here.

Here we flesh out this analysis and look at how all institutes perform by this measure (Berg, and now Lorsch, only analyzed GM). One caveat is that we only have access to total.cost in NIH EXPORTER, so the numbers include indirect costs. But, this is real cost to the tax-payer.

First, we need to calculate the lifetime costs of all R01 grants.

# calculate costs of all grants, over the entire lifetime of the grant
grant_costs <- projects %>%
  filter(institute %in% nih.institutes & activity == 'R01') %>%
  left_join(project_io, by = 'project.num') %>%
  select(institute, project.num, total.cost, n.pubs) %>%
  unique()

grant_costs
#> # A tibble: 87,216 × 4
#>    institute project.num total.cost n.pubs
#>       <fctr>       <chr>      <dbl>  <int>
#> 1         AA R01AA000187     192057     44
#> 2         AA R01AA000279    1368179      1
#> 3         AA R01AA000626    4256757     94
#> 4         AA R01AA002666    2635998    160
#> 5         AA R01AA002686    7088071     59
#> 6         AA R01AA003037     710028     12
#> 7         AA R01AA003490    2285856     31
#> 8         AA R01AA003972    2695918     51
#> 9         AA R01AA004610    5035947     32
#> 10        AA R01AA004961     477993     68
#> # ... with 87,206 more rows

Next, we need to identify grants in each of the bins that Berg previously alluded to. dplyr makes this easy with the ntile() function. Berg previously divided grants into ~15 bins, we’ll bin into ~5%.

bin_grant_costs <- grant_costs %>%
  group_by(institute) %>%
  group_by(n.tile = ntile(total.cost, 20)) 

bin_grant_costs
#> Source: local data frame [87,216 x 5]
#> Groups: n.tile [21]
#> 
#>    institute project.num total.cost n.pubs n.tile
#>       <fctr>       <chr>      <dbl>  <int>  <int>
#> 1         AA R01AA000187     192057     44      1
#> 2         AA R01AA000279    1368179      1     10
#> 3         AA R01AA000626    4256757     94     20
#> 4         AA R01AA002666    2635998    160     17
#> 5         AA R01AA002686    7088071     59     20
#> 6         AA R01AA003037     710028     12      5
#> 7         AA R01AA003490    2285856     31     16
#> 8         AA R01AA003972    2695918     51     17
#> 9         AA R01AA004610    5035947     32     20
#> 10        AA R01AA004961     477993     68      3
#> # ... with 87,206 more rows
…
dollar_bin_grant_costs <- grant_costs %>%
  group_by(institute) %>%
  mutate(dollar.tile = findInterval(total.cost, vec = breaks, 
                                    all.inside = TRUE, rightmost.closed = TRUE))

dollar_bin_grant_costs
#> Source: local data frame [87,216 x 5]
#> Groups: institute [24]
#> 
#>    institute project.num total.cost n.pubs dollar.tile
#>       <fctr>       <chr>      <dbl>  <int>       <int>
#> 1         AA R01AA000187     192057     44           1
#> 2         AA R01AA000279    1368179      1           2
#> 3         AA R01AA000626    4256757     94           5
#> 4         AA R01AA002666    2635998    160           3
#> 5         AA R01AA002686    7088071     59           8
#> 6         AA R01AA003037     710028     12           1
#> 7         AA R01AA003490    2285856     31           3
#> 8         AA R01AA003972    2695918     51           3
#> 9         AA R01AA004610    5035947     32           6
#> 10        AA R01AA004961     477993     68           1
#> # ... with 87,206 more rows

dollar_bin_grant_costs %>% group_by(dollar.tile) %>% summarize(count = n())
#> # A tibble: 37 × 2
#>    dollar.tile count
#>          <int> <int>
#> 1            1 23414
#> 2            2 35040
#> 3            3 12911
#> 4            4  6583
#> 5            5  2865
#> 6            6  1198
#> 7            7   527
#> 8            8   243
#> 9            9   123
#> 10          10    95
#> # ... with 27 more rows
…
