Introduction to nihexporter • nihexporter
…
First, we need to calculate the lifetime costs of all R01 grants.

# calculate costs of all grants, over the entire lifetime of the grant
grant_costs <- projects |>
  filter(institute %in% nih_institutes & activity == 'R01') |>
  left_join(project_io, by = 'project_num') |>
  select(institute, project_num, total_cost, n_pubs) |>
  unique()

grant_costs
#> # A tibble: 116,579 × 4
#>    institute project_num total_cost n_pubs
#>    <fct>     <chr>            <dbl>  <int>
#>  1 AA        R01AA000187     192057     67
#>  2 AA        R01AA000279    1368179      6
#>  3 AA        R01AA000626    4256757    118
#>  4 AA        R01AA002666    2635998    171
#>  5 AA        R01AA002686    9560051     73
#>  6 AA        R01AA003037     710028     16
#>  7 AA        R01AA003490    2285856     33
#>  8 AA        R01AA003972    2695918     58
#>  9 AA        R01AA004610    5035947     39
#> 10 AA        R01AA004961     477993     76
#> # ℹ 116,569 more rows

Next, we need to identify grants in each of the bins that Berg
previously alluded to. dplyr makes this easy with the
ntile() function. Berg previously divided grants into ~15
bins, we’ll bin into ~5%.

bin_grant_costs <- grant_costs |>
  group_by(institute) |>
  group_by(n_tile = ntile(total_cost, 20)) 

bin_grant_costs
#> # A tibble: 116,579 × 5
#> # Groups:   n_tile [20]
#>    institute project_num total_cost n_pubs n_tile
#>    <fct>     <chr>            <dbl>  <int>  <int>
#>  1 AA        R01AA000187     192057     67      1
#>  2 AA        R01AA000279    1368179      6      8
#>  3 AA        R01AA000626    4256757    118     19
#>  4 AA        R01AA002666    2635998    171     16
#>  5 AA        R01AA002686    9560051     73     20
#>  6 AA        R01AA003037     710028     16      3
#>  7 AA        R01AA003490    2285856     33     15
#>  8 AA        R01AA003972    2695918     58     16
#>  9 AA        R01AA004610    5035947     39     20
#> 10 AA        R01AA004961     477993     76      2
#> # ℹ 116,569 more rows
…
dollar_bin_grant_costs <- grant_costs |>
  mutate(
    dollar.tile = findInterval(
      total_cost, vec = breaks, 
      all.inside = TRUE, rightmost.closed = TRUE
    ),
    .by = institute
  )

dollar_bin_grant_costs
#> # A tibble: 116,579 × 5
#>    institute project_num total_cost n_pubs dollar.tile
#>    <fct>     <chr>            <dbl>  <int>       <int>
#>  1 AA        R01AA000187     192057     67           1
#>  2 AA        R01AA000279    1368179      6           2
#>  3 AA        R01AA000626    4256757    118           5
#>  4 AA        R01AA002666    2635998    171           3
#>  5 AA        R01AA002686    9560051     73          10
#>  6 AA        R01AA003037     710028     16           1
#>  7 AA        R01AA003490    2285856     33           3
#>  8 AA        R01AA003972    2695918     58           3
#>  9 AA        R01AA004610    5035947     39           6
#> 10 AA        R01AA004961     477993     76           1
#> # ℹ 116,569 more rows

dollar_bin_grant_costs |> summarize(count = n(), .by = dollar.tile)
#> # A tibble: 44 × 2
#>    dollar.tile count
#>          <int> <int>
#>  1           1 25143
#>  2           2 50436
#>  3           5  4061
#>  4           3 21171
#>  5          10   232
#>  6           6  2297
#>  7           4 10444
#>  8           9   357
#>  9           7  1290
#> 10           8   659
#> # ℹ 34 more rows
…
